\relax 
\@nameuse{bbl@beforestart}
\babel@aux{english}{}
\@writefile{toc}{\contentsline {section}{\numberline {1}Time Series Forecasting in Machine learning:}{1}\protected@file@percent }
\@writefile{toc}{\contentsline {section}{\numberline {2}Applications of machine learning time series Forecasting}{1}\protected@file@percent }
\@writefile{toc}{\contentsline {section}{\numberline {3}Time Series Forecasting Machine Learning Methods}{1}\protected@file@percent }
\@writefile{toc}{\contentsline {section}{\numberline {4}Process of Time Series Forecasting Using Machine Learning}{5}\protected@file@percent }
